{
  "entities": {
    "conocer": {
      "automatically_extensible": true,
      "data": [],
      "use_synonyms": true
    },
    "culturaE": {
      "automatically_extensible": true,
      "data": [],
      "use_synonyms": true
    },
    "ecapital": {
      "automatically_extensible": true,
      "data": [],
      "use_synonyms": true
    },
    "ellaman": {
      "automatically_extensible": true,
      "data": [],
      "use_synonyms": true
    },
    "emoneda": {
      "automatically_extensible": true,
      "data": [],
      "use_synonyms": true
    },
    "entidades": {
      "automatically_extensible": true,
      "data": [
        {
          "synonyms": [
            " estas",
            " oe como vas"
          ],
          "value": "Hola"
        },
        {
          "synonyms": [
            "Ecuador",
            " ecuador "
          ],
          "value": "Ecuatorianos"
        },
        {
          "synonyms": [],
          "value": "artistas"
        },
        {
          "synonyms": [
            " sabes",
            " conocer"
          ],
          "value": "conoces"
        },
        {
          "synonyms": [
            " cuentame algo",
            " quien es",
            " dime algo sobre"
          ],
          "value": "cuentame de"
        },
        {
          "synonyms": [],
          "value": "capital"
        },
        {
          "synonyms": [],
          "value": "moneda"
        },
        {
          "synonyms": [
            " llama a las personas",
            " denominan",
            ""
          ],
          "value": "denominacion"
        },
        {
          "synonyms": [
            " culturas hay",
            "son las razas",
            "cuales son las etnias"
          ],
          "value": "etnias existen"
        }
        
      ],
      "use_synonyms": true
    },
    "etnia": {
      "automatically_extensible": true,
      "data": [
        {
          "synonyms": [
            "cultura "
          ],
          "value": "etnia"
        },
        {
          "synonyms": [
            " mestiza"
          ],
          "value": "Mestizo"
        },
        {
          "synonyms": [
            " montubia"
          ],
          "value": "Montubio"
        },
        {
          "synonyms": [
            " indigena",
            "indigena de ecuador"
          ],
          "value": "Ind\u00edgenas en Ecuador"
        }
      ],
      "use_synonyms": true
    },
    "location": {
      "automatically_extensible": false,
      "data": [],
      "use_synonyms": true
    },
    "nombre": {
      "automatically_extensible": true,
      "data": [
        {
          "synonyms": [
            " julio jaramillo",
            " jj"
          ],
          "value": "Julio Jaramillo"
        },
        {
          "synonyms": [
            " maria elisa camargo"
          ],
          "value": "Mar\u00eda Elisa Camargo"
        },
        {
          "synonyms": [
            " carlos rubira infante"
          ],
          "value": "Carlos Rubira Infante "
        },
        {
          "synonyms": [
            " martin morales"
          ],
          "value": "Mart\u00edn Morales"
        },
        {
          "synonyms": [
            " delfin quishpe"
          ],
          "value": "Delf\u00edn Quishpe"
        },
        {
          "synonyms": [
            " fausto mi\u00f1o"
          ],
          "value": "Fausto Mi\u00f1o"
        },
        {
          "synonyms": [
            " juan fernando velasco"
          ],
          "value": "Juan Fernando Velasco"
        },
        {
          "synonyms": [
            " pamela cortes"
          ],
          "value": "Pamela Cortes"
        }
      ],
      "use_synonyms": true
    },
    "personA": {
      "automatically_extensible": false,
      "data": [],
      "use_synonyms": true
    },
    "prequien": {
      "automatically_extensible": true,
      "data": [],
      "use_synonyms": true
    },
    "saludo": {
      "automatically_extensible": true,
      "data": [],
      "use_synonyms": true
    }
  },
  "intents": {
    "InfomacionEtnias": {
      "utterances": [
        {
          "data": [
            {
              "text": "que es la "
            },
            {
              "entity": "culturaE",
              "slot_name": "culturaE",
              "text": "cultura"
            },
            {
              "entity": "etnia",
              "slot_name": "etnia",
              "text": "Mestizo"
            }
          ]
        },
        {
          "data": [
            {
              "text": "que es la "
            },
            {
              "entity": "culturaE",
              "slot_name": "culturaE",
              "text": "etnia"
            },
            {
              "entity": "etnia",
              "slot_name": "etnia",
              "text": "Montubio"
            }
          ]
        },
        {
          "data": [
            {
              "text": "cuenta como es la "
            },
            {
              "entity": "culturaE",
              "slot_name": "culturaE",
              "text": "cultura"
            },
            {
              "entity": "etnia",
              "slot_name": "etnia",
              "text": "Ind\u00edgenas en Ecuador"
            }
          ]
        },
        {
          "data": [
            {
              "text": "la "
            },
            {
              "entity": "culturaE",
              "slot_name": "culturaE",
              "text": "cultura"
            },
            {
              "text": " del "
            },
            {
              "entity": "etnia",
              "slot_name": "etnia",
              "text": "Mestizo"
            },
            {
              "text": " como es"
            }
          ]
        }
      ]
    },
    "InformacionArtista": {
      "utterances": [
        {
          "data": [
            {
              "text": "Esta bien "
            },
            {
              "entity": "prequien",
              "slot_name": "prequien",
              "text": "quien es"
            },
            {
              "entity": "nombre",
              "slot_name": "nombre",
              "text": "Paulina Aguirre"
            }
          ]
        },
        {
          "data": [
            {
              "entity": "prequien",
              "slot_name": "prequien",
              "text": "cuentame de"
            },
            {
              "entity": "nombre",
              "slot_name": "nombre",
              "text": "Julio Jaramillo"
            }
          ]
        },
        {
          "data": [
            {
              "entity": "prequien",
              "slot_name": "prequien",
              "text": "cuentame algo"
            },
            {
              "text": " de "
            },
            {
              "entity": "nombre",
              "slot_name": "nombre",
              "text": "Jaime Enrique Aymara"
            }
          ]
        },
        {
          "data": [
            {
              "entity": "prequien",
              "slot_name": "prequien",
              "text": "dime"
            },
            {
              "text": " de "
            },
            {
              "entity": "nombre",
              "slot_name": "nombre",
              "text": "Olimpo C\u00e1rdenas"
            }
          ]
        },
        {
          "data": [
            {
              "text": "ok "
            },
            {
              "entity": "prequien",
              "slot_name": "prequien",
              "text": "dime algo sobre"
            },
            {
              "entity": "nombre",
              "slot_name": "nombre",
              "text": "carlos rubira infante"
            }
          ]
        }
      ]
    },
    "InformacionPais": {
      "utterances": [
        {
          "data": [
            {
              "text": "Cual es la "
            },
            {
              "entity": "ecapital",
              "slot_name": "ecapital",
              "text": "capital"
            },
            {
              "text": " de "
            },
            {
              "entity": "location",
              "slot_name": "location",
              "text": "Ecuador"
            }
          ]
        },
        {
          "data": [
            {
              "entity": "ecapital",
              "slot_name": "ecapital",
              "text": "capital"
            },
            {
              "text": " del "
            },
            {
              "entity": "location",
              "slot_name": "location",
              "text": "Ecuador"
            }
          ]
        },
        {
          "data": [
            {
              "entity": "ecapital",
              "slot_name": "ecapital",
              "text": "capital"
            },
            {
              "text": " del pais "
            },
            {
              "entity": "location",
              "slot_name": "location",
              "text": "Ecuador"
            }
          ]
        },
        {
          "data": [
            {
              "entity": "emoneda",
              "slot_name": "emoneda",
              "text": "moneda"
            },
            {
              "text": " del "
            },
            {
              "entity": "location",
              "slot_name": "location",
              "text": "Ecuador"
            }
          ]
        },
        {
          "data": [
            {
              "text": "cual es la "
            },
            {
              "entity": "emoneda",
              "slot_name": "emoneda",
              "text": "moneda"
            },
            {
              "text": " de "
            },
            {
              "entity": "location",
              "slot_name": "location",
              "text": "Ecuador"
            }
          ]
        },
        {
          "data": [
            {
              "text": "y la "
            },
            {
              "entity": "emoneda",
              "slot_name": "emoneda",
              "text": "moneda"
            },
            {
              "text": " de "
            },
            {
              "entity": "location",
              "slot_name": "location",
              "text": "Ecuador"
            },
            {
              "text": " cual es"
            }
          ]
        },
        {
          "data": [
            {
              "entity": "ellaman",
              "slot_name": "ellaman",
              "text": "denominacion"
            },
            {
              "text": " a los ciudadanos de "
            },
            {
              "entity": "location",
              "slot_name": "location",
              "text": "Ecuador"
            }
          ]
        },
        {
          "data": [
            {
              "text": "como se le "
            },
            {
              "entity": "ellaman",
              "slot_name": "ellaman",
              "text": "llama a las personas"
            },
            {
              "text": " de "
            },
            {
              "entity": "location",
              "slot_name": "location",
              "text": "Ecuador"
            }
          ]
        },
        {
          "data": [
            {
              "text": "como les "
            },
            {
              "entity": "ellaman",
              "slot_name": "ellaman",
              "text": "denominan"
            },
            {
              "text": " a los de "
            },
            {
              "entity": "location",
              "slot_name": "location",
              "text": "Ecuador"
            }
          ]
        },
        {
          "data": [
            {
              "text": "dime la "
            },
            {
              "entity": "ellaman",
              "slot_name": "ellaman",
              "text": "denominacion"
            },
            {
              "text": " de los ciudadanos de "
            },
            {
              "entity": "location",
              "slot_name": "location",
              "text": "Ecuador"
            }
          ]
        }
      ]
    },
    "ListaArtistas": {
      "utterances": [
        {
          "data": [
            {
              "entity": "location",
              "slot_name": "location",
              "text": "Ecuatorianos"
            },
            {
              "text": " que son "
            },
            {
              "entity": "personA",
              "slot_name": "personA",
              "text": "artistas"
            }
          ]
        },
        {
          "data": [
            {
              "text": "Cuales "
            },
            {
              "entity": "personA",
              "slot_name": "personA",
              "text": "artistas"
            },
            {
              "text": " son "
            },
            {
              "entity": "location",
              "slot_name": "location",
              "text": "Ecuatorianos"
            }
          ]
        },
        {
          "data": [
            {
              "text": "Dime los "
            },
            {
              "entity": "personA",
              "slot_name": "personA",
              "text": "artistas"
            },
            {
              "entity": "location",
              "slot_name": "location",
              "text": "Ecuatorianos"
            }
          ]
        },
        {
          "data": [
            {
              "text": "Listame los "
            },
            {
              "entity": "personA",
              "slot_name": "personA",
              "text": "artistas"
            },
            {
              "text": " de "
            },
            {
              "entity": "location",
              "slot_name": "location",
              "text": "Ecuador"
            }
          ]
        },
        {
          "data": [
            {
              "text": "Ok dime los "
            },
            {
              "entity": "personA",
              "slot_name": "personA",
              "text": "artistas"
            },
            {
              "entity": "location",
              "slot_name": "location",
              "text": "Ecuatorianos"
            }
          ]
        },
        {
          "data": [
            {
              "text": "Cuales son los "
            },
            {
              "entity": "personA",
              "slot_name": "personA",
              "text": "artistas"
            },
            {
              "text": " que "
            },
            {
              "entity": "conocer",
              "slot_name": "conocer",
              "text": "conoces"
            }
          ]
        },
        {
          "data": [
            {
              "text": "dime los "
            },
            {
              "entity": "personA",
              "slot_name": "personA",
              "text": "artistas"
            },
            {
              "text": " que "
            },
            {
              "entity": "conocer",
              "slot_name": "conocer",
              "text": "sabes"
            }
          ]
        },
        {
          "data": [
            {
              "text": "a ver cuales son los "
            },
            {
              "entity": "personA",
              "slot_name": "personA",
              "text": "artistas"
            },
            {
              "text": " que dices "
            },
            {
              "entity": "conocer",
              "slot_name": "conocer",
              "text": "conocer"
            }
          ]
        },
        {
          "data": [
            {
              "text": "a ver cuales son los "
            },
            {
              "entity": "personA",
              "slot_name": "personA",
              "text": "cantantes"
            },
            {
              "text": " que dices "
            },
            {
              "entity": "conocer",
              "slot_name": "conocer",
              "text": "conocer"
            }
          ]
        },
        {
          "data": [
            {
              "text": "me puedes decir ue "
            },
            {
              "entity": "personA",
              "slot_name": "personA",
              "text": "artistas"
            },
            {
              "entity": "conocer",
              "slot_name": "conocer",
              "text": "conoces"
            }
          ]
        }
      ]
    },
    "ListaEtnia": {
      "utterances": [
        {
          "data": [
            {
              "text": "que "
            },
            {
              "entity": "culturaE",
              "slot_name": "culturaE",
              "text": "etnias existen"
            },
            {
              "text": "  en "
            },
            {
              "entity": "location",
              "slot_name": "location",
              "text": "Ecuador"
            }
          ]
        },
        {
          "data": [
            {
              "text": "que "
            },
            {
              "entity": "culturaE",
              "slot_name": "culturaE",
              "text": "culturas hay"
            },
            {
              "text": " en "
            },
            {
              "entity": "location",
              "slot_name": "location",
              "text": "Ecuador"
            }
          ]
        },
        {
          "data": [
            {
              "text": "cuales "
            },
            {
              "entity": "culturaE",
              "slot_name": "culturaE",
              "text": "son las razas"
            },
            {
              "text": " en el "
            },
            {
              "entity": "location",
              "slot_name": "location",
              "text": "Ecuador"
            }
          ]
        },
        {
          "data": [
            {
              "entity": "culturaE",
              "slot_name": "culturaE",
              "text": "cuales son las etnias"
            },
            {
              "text": " del "
            },
            {
              "entity": "location",
              "slot_name": "location",
              "text": "Ecuador"
            }
          ]
        },
        {
          "data": [
            {
              "text": "dime las "
            },
            {
              "entity": "culturaE",
              "slot_name": "culturaE",
              "text": "etnias"
            },
            {
              "text": " del "
            },
            {
              "entity": "location",
              "slot_name": "location",
              "text": "Ecuador"
            }
          ]
        }
      ]
    },
    "Saludo": {
      "utterances": [
        {
          "data": [
            {
              "entity": "saludo",
              "slot_name": "saludo",
              "text": "Hola"
            }
          ]
        },
        {
          "data": [
            {
              "entity": "saludo",
              "slot_name": "saludo",
              "text": "Hola"
            },
            {
              "text": " como estas"
            }
          ]
        },
        {
          "data": [
            {
              "entity": "saludo",
              "slot_name": "saludo",
              "text": "Hola"
            },
            {
              "text": " estas ahi"
            }
          ]
        },
        {
          "data": [
            {
              "entity": "saludo",
              "slot_name": "saludo",
              "text": "Hola"
            },
            {
              "text": " que tal"
            }
          ]
        },
        {
          "data": [
            {
              "entity": "saludo",
              "slot_name": "saludo",
              "text": "estas"
            }
          ]
        },
        {
          "data": [
            {
              "entity": "saludo",
              "slot_name": "saludo",
              "text": "oe como vas"
            }
          ]
        }
      ]
    }
  },
  "language": "en"
}
